{
 "SoundBanksInfo": {
  "Platform": "Windows",
  "BasePlatform": "Windows",
  "SchemaVersion": "12",
  "SoundbankVersion": "135",
  "RootPaths": {
   "ProjectRoot": "/Users/hpo13/Library/Application Support/Wwise2019/Bottles/Wwise2019x64/dosdevices/y:/Documents/Projects/Games/GJA 20/Electro Heist/Wwise project from Jared/gja2020_WwiseProject/",
   "SourceFilesRoot": "/Users/hpo13/Library/Application Support/Wwise2019/Bottles/Wwise2019x64/dosdevices/y:/Documents/Projects/Games/GJA 20/Electro Heist/Wwise project from Jared/gja2020_WwiseProject/.cache/Windows/",
   "SoundBanksRoot": "/Users/hpo13/Library/Application Support/Wwise2019/Bottles/Wwise2019x64/dosdevices/y:/Documents/Projects/Games/GJA 20/Electro Heist/Wwise project from Jared/gja2020_WwiseProject/GeneratedSoundBanks/Windows/",
   "ExternalSourcesInputFile": "",
   "ExternalSourcesOutputRoot": "/Users/hpo13/Library/Application Support/Wwise2019/Bottles/Wwise2019x64/dosdevices/y:/Documents/Projects/Games/GJA 20/Electro Heist/Wwise project from Jared/gja2020_WwiseProject/GeneratedSoundBanks/Windows"
  },
  "SoundBanks": [
   {
    "Id": "4072029455",
    "GUID": "{05D53608-9B73-46BF-A506-5B40BA13432F}",
    "Language": "SFX",
    "ObjectPath": "\\SoundBanks\\Default Work Unit\\New_SoundBank",
    "ShortName": "New_SoundBank",
    "Path": "New_SoundBank.bnk",
    "IncludedEvents": [
     {
      "Id": "3194520813",
      "Name": "Play_Hack_Sound",
      "ObjectPath": "\\Events\\Default Work Unit\\Play_Hack_Sound",
      "GUID": "{789CB011-4A7B-4157-B990-95F3C565F168}",
      "DurationType": "Infinite",
      "IncludedMemoryFiles": [
       {
        "Id": "49453575",
        "Language": "SFX",
        "ShortName": "data_transfer_a.wav",
        "Path": "SFX/data_transfer_a_9EDFC787.wem"
       },
       {
        "Id": "306083934",
        "Language": "SFX",
        "ShortName": "data_transfer_b.wav",
        "Path": "SFX/data_transfer_b_9EDFC787.wem"
       },
       {
        "Id": "1058345320",
        "Language": "SFX",
        "ShortName": "typing_lp.wav",
        "Path": "SFX/typing_lp_9EDFC787.wem"
       }
      ]
     },
     {
      "Id": "3954177457",
      "Name": "Play_van_skid",
      "ObjectPath": "\\Events\\Default Work Unit\\Play_van_skid",
      "GUID": "{1BF967C4-36BC-4BC1-A2DA-2692E6B61DBF}",
      "DurationType": "OneShot",
      "DurationMin": "20.997755",
      "DurationMax": "26.000000",
      "IncludedMemoryFiles": [
       {
        "Id": "114536566",
        "Language": "SFX",
        "ShortName": "van_skid_lp_2.wav",
        "Path": "SFX/van_skid_lp_2_3F75BDB9.wem"
       },
       {
        "Id": "310305175",
        "Language": "SFX",
        "ShortName": "van_skid_lp_4.wav",
        "Path": "SFX/van_skid_lp_4_3F75BDB9.wem"
       },
       {
        "Id": "312074769",
        "Language": "SFX",
        "ShortName": "van_skid_lp_3.wav",
        "Path": "SFX/van_skid_lp_3_3F75BDB9.wem"
       },
       {
        "Id": "735022111",
        "Language": "SFX",
        "ShortName": "van_skid_lp_1.wav",
        "Path": "SFX/van_skid_lp_1_3F75BDB9.wem"
       }
      ]
     },
     {
      "Id": "462333423",
      "Name": "Start_Sound",
      "ObjectPath": "\\Events\\Default Work Unit\\Start_Sound",
      "GUID": "{B2AA44B7-8678-4BA5-A3C7-963DFDCC1AF0}",
      "DurationType": "Infinite",
      "IncludedMemoryFiles": [
       {
        "Id": "755519668",
        "Language": "SFX",
        "ShortName": "van_move_off.wav",
        "Path": "SFX/van_move_off_3F75BDB9.wem"
       },
       {
        "Id": "834480630",
        "Language": "SFX",
        "ShortName": "van_ignition.wav",
        "Path": "SFX/van_ignition_3F75BDB9.wem"
       },
       {
        "Id": "835177666",
        "Language": "SFX",
        "ShortName": "Synthwave test.wav",
        "Path": "SFX/Synthwave test_9EDFC787.wem"
       },
       {
        "Id": "873933655",
        "Language": "SFX",
        "ShortName": "traffic_mediumzoom.wav",
        "Path": "SFX/traffic_mediumzoom_3F75BDB9.wem"
       }
      ],
      "SwitchContainers": [
       {
        "SwitchValue": "{3D25DA75-4DD8-4014-BAF5-D74845D2CDBA}",
        "Media": [
         {
          "Id": "835177666"
         }
        ]
       }
      ],
      "ActionSetState": [
       {
        "Id": "1281810935",
        "Name": "start",
        "ObjectPath": "\\States\\Default Work Unit\\music_state\\start",
        "GUID": "{3D25DA75-4DD8-4014-BAF5-D74845D2CDBA}"
       }
      ]
     },
     {
      "Id": "1221855659",
      "Name": "Stop_Hack_Sound",
      "ObjectPath": "\\Events\\Default Work Unit\\Stop_Hack_Sound",
      "GUID": "{B727934E-6273-42C9-A491-2A6969095352}",
      "MaxAttenuation": "0.000000",
      "DurationType": "OneShot",
      "DurationMin": "0.000000",
      "DurationMax": "0.000000"
     },
     {
      "Id": "2264274941",
      "Name": "Stop_Sound",
      "ObjectPath": "\\Events\\Default Work Unit\\Stop_Sound",
      "GUID": "{38BBADD7-141F-4640-B871-5249B4AEF050}",
      "MaxAttenuation": "0.000000",
      "DurationType": "OneShot",
      "DurationMin": "0.000000",
      "DurationMax": "0.000000"
     },
     {
      "Id": "649617627",
      "Name": "Stop_van_skid",
      "ObjectPath": "\\Events\\Default Work Unit\\Stop_van_skid",
      "GUID": "{64AA1E25-5133-4A64-A207-836143FFC368}",
      "MaxAttenuation": "0.000000",
      "DurationType": "OneShot",
      "DurationMin": "0.000000",
      "DurationMax": "0.000000"
     }
    ],
    "StateGroups": [
     {
      "Id": "1281810935",
      "Name": "start",
      "ObjectPath": "\\States\\Default Work Unit\\music_state\\start",
      "GUID": "{3D25DA75-4DD8-4014-BAF5-D74845D2CDBA}",
      "States": []
     },
     {
      "Id": "3826569560",
      "Name": "music_state",
      "ObjectPath": "\\States\\Default Work Unit\\music_state",
      "GUID": "{7CAA25C8-8817-4D8A-BD1D-1B741B177CEF}",
      "States": [
       {
        "Id": "748895195",
        "Name": "None",
        "ObjectPath": "\\States\\Default Work Unit\\music_state\\None",
        "GUID": "{37771102-5631-406B-8FCB-04E8B371CC7A}"
       },
       {
        "Id": "1281810935",
        "Name": "start",
        "ObjectPath": "\\States\\Default Work Unit\\music_state\\start",
        "GUID": "{3D25DA75-4DD8-4014-BAF5-D74845D2CDBA}"
       }
      ]
     }
    ]
   }
  ]
 }
}